{
  "hosting": {
    "public": "dist/browser",
    "rewrites": [
      {
        "source": "/robots.txt",
        "destination": "/robots.txt"
      },  
      {
        "source": "**",
        "destination": "/index.html"
      }
    ],
    "headers": [ 
      {
        "source" : "**/*.@(eot|otf|ttf|ttc|woff|woff2|json|font.css)",
        "headers" : [ 
          {
            "key" : "Access-Control-Allow-Origin",
            "value" : "*"
          },
          {
            "key" : "Cache-Control",
            "value" : "max-age=604800"
          }  
        ]
      }, 
      {
        "source" : "**/*.@(js|css)",
        "headers" : [ 
          {
            "key" : "Cache-Control",
            "value" : "max-age=604800"
          } 
        ]
      }, 
      {
        "source" : "**/*.@(jpg|jpeg|gif|png|webp|svg|ico)",
        "headers" : [ 
          {
            "key" : "Cache-Control",
            "value" : "max-age=604800"
          }   
        ]
      }
    ]
  }
}